graphFilename,testFilename,numNodes,numEdges,SIZE_BLOOM,MemUsage(inMB),totalSampledEdges,fp_ratio,timeTaken
../../../../Data/ca-cit-HepPh/out.ca-cit-HepPh_uniq_New,../testFiles/file_0,28094,3148447,2848,9.538139,6296894,0.043912,3.158227
../../../../Data/ca-cit-HepPh/out.ca-cit-HepPh_uniq_New,../testFiles/file_1,28094,3148447,2848,9.538139,6296894,0.043946,3.131349
../../../../Data/ca-cit-HepPh/out.ca-cit-HepPh_uniq_New,../testFiles/file_2,28094,3148447,2848,9.538139,6296894,0.043890,3.128681
../../../../Data/ca-cit-HepPh/out.ca-cit-HepPh_uniq_New,../testFiles/file_3,28094,3148447,2848,9.538139,6296894,0.043977,3.213191
../../../../Data/ca-cit-HepPh/out.ca-cit-HepPh_uniq_New,../testFiles/file_4,28094,3148447,2848,9.538139,6296894,0.043894,3.142831
../../../../Data/ca-cit-HepPh/out.ca-cit-HepPh_uniq_New,../testFiles/file_5,28094,3148447,2848,9.538139,6296894,0.043992,3.115565
../../../../Data/ca-cit-HepPh/out.ca-cit-HepPh_uniq_New,../testFiles/file_6,28094,3148447,2848,9.538139,6296894,0.043933,3.164072
../../../../Data/ca-cit-HepPh/out.ca-cit-HepPh_uniq_New,../testFiles/file_7,28094,3148447,2848,9.538139,6296894,0.044045,3.109883
../../../../Data/ca-cit-HepPh/out.ca-cit-HepPh_uniq_New,../testFiles/file_8,28094,3148447,2848,9.538139,6296894,0.043818,3.094032
../../../../Data/ca-cit-HepPh/out.ca-cit-HepPh_uniq_New,../testFiles/file_9,28094,3148447,2848,9.538139,6296894,0.044014,3.114282
../../../../Data/ca-cit-HepPh/out.ca-cit-HepPh_uniq_New,../testFiles/file_0,28094,3148447,4288,14.360794,6296894,0.026449,2.708716
../../../../Data/ca-cit-HepPh/out.ca-cit-HepPh_uniq_New,../testFiles/file_1,28094,3148447,4288,14.360794,6296894,0.026457,2.712179
../../../../Data/ca-cit-HepPh/out.ca-cit-HepPh_uniq_New,../testFiles/file_2,28094,3148447,4288,14.360794,6296894,0.026410,2.708628
../../../../Data/ca-cit-HepPh/out.ca-cit-HepPh_uniq_New,../testFiles/file_3,28094,3148447,4288,14.360794,6296894,0.026396,2.730250
../../../../Data/ca-cit-HepPh/out.ca-cit-HepPh_uniq_New,../testFiles/file_4,28094,3148447,4288,14.360794,6296894,0.026411,2.706104
../../../../Data/ca-cit-HepPh/out.ca-cit-HepPh_uniq_New,../testFiles/file_5,28094,3148447,4288,14.360794,6296894,0.026462,2.735809
../../../../Data/ca-cit-HepPh/out.ca-cit-HepPh_uniq_New,../testFiles/file_6,28094,3148447,4288,14.360794,6296894,0.026301,2.751777
../../../../Data/ca-cit-HepPh/out.ca-cit-HepPh_uniq_New,../testFiles/file_7,28094,3148447,4288,14.360794,6296894,0.026439,2.734131
../../../../Data/ca-cit-HepPh/out.ca-cit-HepPh_uniq_New,../testFiles/file_8,28094,3148447,4288,14.360794,6296894,0.026401,2.708302
../../../../Data/ca-cit-HepPh/out.ca-cit-HepPh_uniq_New,../testFiles/file_9,28094,3148447,4288,14.360794,6296894,0.026467,2.720994
../../../../Data/ca-cit-HepPh/out.ca-cit-HepPh_uniq_New,../testFiles/file_0,28094,3148447,5728,19.183449,6296894,0.018229,2.750025
../../../../Data/ca-cit-HepPh/out.ca-cit-HepPh_uniq_New,../testFiles/file_1,28094,3148447,5728,19.183449,6296894,0.018241,2.747674
../../../../Data/ca-cit-HepPh/out.ca-cit-HepPh_uniq_New,../testFiles/file_2,28094,3148447,5728,19.183449,6296894,0.018229,2.732946
../../../../Data/ca-cit-HepPh/out.ca-cit-HepPh_uniq_New,../testFiles/file_3,28094,3148447,5728,19.183449,6296894,0.018304,2.753825
../../../../Data/ca-cit-HepPh/out.ca-cit-HepPh_uniq_New,../testFiles/file_4,28094,3148447,5728,19.183449,6296894,0.018241,2.729857
../../../../Data/ca-cit-HepPh/out.ca-cit-HepPh_uniq_New,../testFiles/file_5,28094,3148447,5728,19.183449,6296894,0.018168,2.739882
../../../../Data/ca-cit-HepPh/out.ca-cit-HepPh_uniq_New,../testFiles/file_6,28094,3148447,5728,19.183449,6296894,0.018234,2.732258
../../../../Data/ca-cit-HepPh/out.ca-cit-HepPh_uniq_New,../testFiles/file_7,28094,3148447,5728,19.183449,6296894,0.018284,2.737445
../../../../Data/ca-cit-HepPh/out.ca-cit-HepPh_uniq_New,../testFiles/file_8,28094,3148447,5728,19.183449,6296894,0.018240,2.728374
../../../../Data/ca-cit-HepPh/out.ca-cit-HepPh_uniq_New,../testFiles/file_9,28094,3148447,5728,19.183449,6296894,0.018253,2.747021
