960	0.4175157	4.487539414868703e-05	0.0600703	1.4913115033419635e-05	0.0378877	1.0740623818010168e-05	0.0003492	1.4057026712644473e-06	
1440	0.2016605	2.216314508367384e-05	0.035833	7.4511744040787154e-06	0.0269837	7.689018142780296e-06	0.0003492	1.4057026712644473e-06	
1952	0.1132271	2.3418133999104498e-05	0.0240113	1.0728513410533564e-05	0.0196616	6.610900090002861e-06	0.0003492	1.4057026712644473e-06	
