FileA,FileB,ResultFile,Overlap,Operation,Namespace,NumHashFunc,UnitSize,NumElemsA,NumElemsB,NumElemsResult,EffMemUsage,FP_Ratio,NULL
rand_500_2000_A_0.1_0,rand_500_2000_B_0.1_0,rand_500_2000_union_0.1_0,0.10000,Union,0,3,1024,500,2000,0,81920,0.0003100,NULL
rand_500_2000_A_0.1_1,rand_500_2000_B_0.1_1,rand_500_2000_union_0.1_1,0.10000,Union,0,3,1024,500,2000,0,83968,0.0002500,NULL
rand_500_2000_A_0.2_0,rand_500_2000_B_0.2_0,rand_500_2000_union_0.2_0,0.20000,Union,0,3,1024,500,2000,0,84992,0.0003500,NULL
rand_500_2000_A_0.2_1,rand_500_2000_B_0.2_1,rand_500_2000_union_0.2_1,0.20000,Union,0,3,1024,500,2000,0,82944,0.0002100,NULL
rand_500_2000_A_0.3_0,rand_500_2000_B_0.3_0,rand_500_2000_union_0.3_0,0.30000,Union,0,3,1024,500,2000,0,83968,0.0002700,NULL
rand_500_2000_A_0.3_1,rand_500_2000_B_0.3_1,rand_500_2000_union_0.3_1,0.30000,Union,0,3,1024,500,2000,0,82944,0.0002900,NULL
rand_500_2000_A_0.4_0,rand_500_2000_B_0.4_0,rand_500_2000_union_0.4_0,0.40000,Union,0,3,1024,500,2000,0,82944,0.0001500,NULL
rand_500_2000_A_0.4_1,rand_500_2000_B_0.4_1,rand_500_2000_union_0.4_1,0.40000,Union,0,3,1024,500,2000,0,86016,0.0001800,NULL
rand_500_2000_A_0.5_0,rand_500_2000_B_0.5_0,rand_500_2000_union_0.5_0,0.50000,Union,0,3,1024,500,2000,0,82944,0.0002200,NULL
rand_500_2000_A_0.5_1,rand_500_2000_B_0.5_1,rand_500_2000_union_0.5_1,0.50000,Union,0,3,1024,500,2000,0,82944,0.0002800,NULL
rand_500_2000_A_0.6_0,rand_500_2000_B_0.6_0,rand_500_2000_union_0.6_0,0.60000,Union,0,3,1024,500,2000,0,83968,0.0002100,NULL
rand_500_2000_A_0.6_1,rand_500_2000_B_0.6_1,rand_500_2000_union_0.6_1,0.60000,Union,0,3,1024,500,2000,0,83968,0.0002600,NULL
rand_500_2000_A_0.7_0,rand_500_2000_B_0.7_0,rand_500_2000_union_0.7_0,0.70000,Union,0,3,1024,500,2000,0,83968,0.0002300,NULL
rand_500_2000_A_0.7_1,rand_500_2000_B_0.7_1,rand_500_2000_union_0.7_1,0.70000,Union,0,3,1024,500,2000,0,86016,0.0001300,NULL
rand_500_2000_A_0.8_0,rand_500_2000_B_0.8_0,rand_500_2000_union_0.8_0,0.80000,Union,0,3,1024,500,2000,0,83968,0.0001500,NULL
rand_500_2000_A_0.8_1,rand_500_2000_B_0.8_1,rand_500_2000_union_0.8_1,0.80000,Union,0,3,1024,500,2000,0,86016,0.0000700,NULL
rand_500_2000_A_0.9_0,rand_500_2000_B_0.9_0,rand_500_2000_union_0.9_0,0.90000,Union,0,3,1024,500,2000,0,86016,0.0001000,NULL
rand_500_2000_A_0.9_1,rand_500_2000_B_0.9_1,rand_500_2000_union_0.9_1,0.90000,Union,0,3,1024,500,2000,0,84992,0.0001500,NULL