FileA,FileB,ResultFile,Overlap,Operation,Namespace,NumHashFunc,UnitSize,NumElemsA,NumElemsB,NumElemsResult,EffMemUsage,FP_Ratio,NULL
rand_200_200_A_0.1_0,rand_200_200_B_0.1_0,rand_200_200_inter_0.1_0,0.10000,Intersection,0,3,1024,200,200,0,9216,0.0000000,NULL
rand_200_200_A_0.1_1,rand_200_200_B_0.1_1,rand_200_200_inter_0.1_1,0.10000,Intersection,0,3,1024,200,200,0,8192,0.0000000,NULL
rand_200_200_A_0.2_0,rand_200_200_B_0.2_0,rand_200_200_inter_0.2_0,0.20000,Intersection,0,3,1024,200,200,0,9216,0.0000100,NULL
rand_200_200_A_0.2_1,rand_200_200_B_0.2_1,rand_200_200_inter_0.2_1,0.20000,Intersection,0,3,1024,200,200,0,9216,0.0000200,NULL
rand_200_200_A_0.3_0,rand_200_200_B_0.3_0,rand_200_200_inter_0.3_0,0.30000,Intersection,0,3,1024,200,200,0,9216,0.0000000,NULL
rand_200_200_A_0.3_1,rand_200_200_B_0.3_1,rand_200_200_inter_0.3_1,0.30000,Intersection,0,3,1024,200,200,0,9216,0.0000200,NULL
rand_200_200_A_0.4_0,rand_200_200_B_0.4_0,rand_200_200_inter_0.4_0,0.40000,Intersection,0,3,1024,200,200,0,9216,0.0000100,NULL
rand_200_200_A_0.4_1,rand_200_200_B_0.4_1,rand_200_200_inter_0.4_1,0.40000,Intersection,0,3,1024,200,200,0,9216,0.0000200,NULL
rand_200_200_A_0.5_0,rand_200_200_B_0.5_0,rand_200_200_inter_0.5_0,0.50000,Intersection,0,3,1024,200,200,0,9216,0.0000200,NULL
rand_200_200_A_0.5_1,rand_200_200_B_0.5_1,rand_200_200_inter_0.5_1,0.50000,Intersection,0,3,1024,200,200,0,9216,0.0000200,NULL
rand_200_200_A_0.6_0,rand_200_200_B_0.6_0,rand_200_200_inter_0.6_0,0.60000,Intersection,0,3,1024,200,200,0,8192,0.0000800,NULL
rand_200_200_A_0.6_1,rand_200_200_B_0.6_1,rand_200_200_inter_0.6_1,0.60000,Intersection,0,3,1024,200,200,0,9216,0.0000600,NULL
rand_200_200_A_0.7_0,rand_200_200_B_0.7_0,rand_200_200_inter_0.7_0,0.70000,Intersection,0,3,1024,200,200,0,8192,0.0001400,NULL
rand_200_200_A_0.7_1,rand_200_200_B_0.7_1,rand_200_200_inter_0.7_1,0.70000,Intersection,0,3,1024,200,200,0,9216,0.0001100,NULL
rand_200_200_A_0.8_0,rand_200_200_B_0.8_0,rand_200_200_inter_0.8_0,0.80000,Intersection,0,3,1024,200,200,0,9216,0.0000900,NULL
rand_200_200_A_0.8_1,rand_200_200_B_0.8_1,rand_200_200_inter_0.8_1,0.80000,Intersection,0,3,1024,200,200,0,9216,0.0000900,NULL
rand_200_200_A_0.9_0,rand_200_200_B_0.9_0,rand_200_200_inter_0.9_0,0.90000,Intersection,0,3,1024,200,200,0,8192,0.0002100,NULL
rand_200_200_A_0.9_1,rand_200_200_B_0.9_1,rand_200_200_inter_0.9_1,0.90000,Intersection,0,3,1024,200,200,0,9216,0.0001400,NULL