FileA,FileB,ResultFile,Overlap,Operation,Namespace,NumHashFunc,UnitSize,FalsePstvProb,FillThreshold,NumElemsA,NumElemsB,NumElemsResult,NumUnitBFs,EffMemUsage,FP_Ratio,NULL
rand_500_1000_A_0.1_0,rand_500_1000_B_0.1_0,rand_500_1000_union_0.1_0,0.1,Union,100000,3,1024,0.00100,35.963,500,1000,1450,41,41984,0.00202,NULL
rand_500_1000_A_0.1_1,rand_500_1000_B_0.1_1,rand_500_1000_union_0.1_1,0.1,Union,100000,3,1024,0.00100,35.963,500,1000,1450,40,40960,0.00211,NULL
rand_500_1000_A_0.2_0,rand_500_1000_B_0.2_0,rand_500_1000_union_0.2_0,0.2,Union,100000,3,1024,0.00100,35.963,500,1000,1400,44,45056,0.00217,NULL
rand_500_1000_A_0.2_1,rand_500_1000_B_0.2_1,rand_500_1000_union_0.2_1,0.2,Union,100000,3,1024,0.00100,35.963,500,1000,1400,41,41984,0.00206,NULL
rand_500_1000_A_0.3_0,rand_500_1000_B_0.3_0,rand_500_1000_union_0.3_0,0.3,Union,100000,3,1024,0.00100,35.963,500,1000,1350,40,40960,0.00204,NULL
rand_500_1000_A_0.3_1,rand_500_1000_B_0.3_1,rand_500_1000_union_0.3_1,0.3,Union,100000,3,1024,0.00100,35.963,500,1000,1350,38,38912,0.00167,NULL
rand_500_1000_A_0.4_0,rand_500_1000_B_0.4_0,rand_500_1000_union_0.4_0,0.4,Union,100000,3,1024,0.00100,35.963,500,1000,1300,41,41984,0.00191,NULL
rand_500_1000_A_0.4_1,rand_500_1000_B_0.4_1,rand_500_1000_union_0.4_1,0.4,Union,100000,3,1024,0.00100,35.963,500,1000,1300,40,40960,0.00195,NULL
rand_500_1000_A_0.5_0,rand_500_1000_B_0.5_0,rand_500_1000_union_0.5_0,0.5,Union,100000,3,1024,0.00100,35.963,500,1000,1250,40,40960,0.00176,NULL
rand_500_1000_A_0.5_1,rand_500_1000_B_0.5_1,rand_500_1000_union_0.5_1,0.5,Union,100000,3,1024,0.00100,35.963,500,1000,1250,45,46080,0.00125,NULL
rand_500_1000_A_0.6_0,rand_500_1000_B_0.6_0,rand_500_1000_union_0.6_0,0.6,Union,100000,3,1024,0.00100,35.963,500,1000,1200,39,39936,0.00165,NULL
rand_500_1000_A_0.6_1,rand_500_1000_B_0.6_1,rand_500_1000_union_0.6_1,0.6,Union,100000,3,1024,0.00100,35.963,500,1000,1200,42,43008,0.00141,NULL
rand_500_1000_A_0.7_0,rand_500_1000_B_0.7_0,rand_500_1000_union_0.7_0,0.7,Union,100000,3,1024,0.00100,35.963,500,1000,1150,40,40960,0.00160,NULL
rand_500_1000_A_0.7_1,rand_500_1000_B_0.7_1,rand_500_1000_union_0.7_1,0.7,Union,100000,3,1024,0.00100,35.963,500,1000,1150,41,41984,0.00139,NULL
rand_500_1000_A_0.8_0,rand_500_1000_B_0.8_0,rand_500_1000_union_0.8_0,0.8,Union,100000,3,1024,0.00100,35.963,500,1000,1100,39,39936,0.00142,NULL
rand_500_1000_A_0.8_1,rand_500_1000_B_0.8_1,rand_500_1000_union_0.8_1,0.8,Union,100000,3,1024,0.00100,35.963,500,1000,1100,43,44032,0.00119,NULL
rand_500_1000_A_0.9_0,rand_500_1000_B_0.9_0,rand_500_1000_union_0.9_0,0.9,Union,100000,3,1024,0.00100,35.963,500,1000,1050,42,43008,0.00130,NULL
rand_500_1000_A_0.9_1,rand_500_1000_B_0.9_1,rand_500_1000_union_0.9_1,0.9,Union,100000,3,1024,0.00100,35.963,500,1000,1050,41,41984,0.00134,NULL
