FileA,FileB,Overlap,Operation,Namespace,NumHashFunc,UnitSize,FalsePstvProb,FillThreshold,NumElemsA,NumElemsB,NumElemsResult,NumUnitBFs,EffMemUsage,FP_Ratio,NULL
rand_1000_1000_A_0.1_0,rand_1000_1000_B_0.1_0,0.1,Union,100000,3,1024,0.00100,35.963,1000,1000,1900,28,28672,0.0305400,NULL
rand_1000_1000_A_0.1_1,rand_1000_1000_B_0.1_1,0.1,Union,100000,3,1024,0.00100,35.963,1000,1000,1900,28,28672,0.0310700,NULL
rand_1000_1000_A_0.2_0,rand_1000_1000_B_0.2_0,0.2,Union,100000,3,1024,0.00100,35.963,1000,1000,1800,28,28672,0.0290700,NULL
rand_1000_1000_A_0.2_1,rand_1000_1000_B_0.2_1,0.2,Union,100000,3,1024,0.00100,35.963,1000,1000,1800,28,28672,0.0313200,NULL
rand_1000_1000_A_0.3_0,rand_1000_1000_B_0.3_0,0.3,Union,100000,3,1024,0.00100,35.963,1000,1000,1700,28,28672,0.0306300,NULL
rand_1000_1000_A_0.3_1,rand_1000_1000_B_0.3_1,0.3,Union,100000,3,1024,0.00100,35.963,1000,1000,1700,28,28672,0.0303800,NULL
rand_1000_1000_A_0.4_0,rand_1000_1000_B_0.4_0,0.4,Union,100000,3,1024,0.00100,35.963,1000,1000,1600,28,28672,0.0302000,NULL
rand_1000_1000_A_0.4_1,rand_1000_1000_B_0.4_1,0.4,Union,100000,3,1024,0.00100,35.963,1000,1000,1600,28,28672,0.0284600,NULL
rand_1000_1000_A_0.5_0,rand_1000_1000_B_0.5_0,0.5,Union,100000,3,1024,0.00100,35.963,1000,1000,1500,28,28672,0.0305700,NULL
rand_1000_1000_A_0.5_1,rand_1000_1000_B_0.5_1,0.5,Union,100000,3,1024,0.00100,35.963,1000,1000,1500,28,28672,0.0294300,NULL
rand_1000_1000_A_0.6_0,rand_1000_1000_B_0.6_0,0.6,Union,100000,3,1024,0.00100,35.963,1000,1000,1400,28,28672,0.0305100,NULL
rand_1000_1000_A_0.6_1,rand_1000_1000_B_0.6_1,0.6,Union,100000,3,1024,0.00100,35.963,1000,1000,1400,28,28672,0.0277000,NULL
rand_1000_1000_A_0.7_0,rand_1000_1000_B_0.7_0,0.7,Union,100000,3,1024,0.00100,35.963,1000,1000,1300,28,28672,0.0292200,NULL
rand_1000_1000_A_0.7_1,rand_1000_1000_B_0.7_1,0.7,Union,100000,3,1024,0.00100,35.963,1000,1000,1300,28,28672,0.0284400,NULL
rand_1000_1000_A_0.8_0,rand_1000_1000_B_0.8_0,0.8,Union,100000,3,1024,0.00100,35.963,1000,1000,1200,28,28672,0.0288100,NULL
rand_1000_1000_A_0.8_1,rand_1000_1000_B_0.8_1,0.8,Union,100000,3,1024,0.00100,35.963,1000,1000,1200,28,28672,0.0296000,NULL
rand_1000_1000_A_0.9_0,rand_1000_1000_B_0.9_0,0.9,Union,100000,3,1024,0.00100,35.963,1000,1000,1100,28,28672,0.0279100,NULL
rand_1000_1000_A_0.9_1,rand_1000_1000_B_0.9_1,0.9,Union,100000,3,1024,0.00100,35.963,1000,1000,1100,28,28672,0.0291100,NULL
