FileA,FileB,Overlap,Operation,Namespace,NumHashFunc,UnitSize,FalsePstvProb,FillThreshold,NumElemsA,NumElemsB,NumElemsResult,NumUnitBFs,EffMemUsage,FP_Ratio,NULL
rand_100_2000_A_0.1_0,rand_100_2000_B_0.1_0,0.1,Union,100000,3,1024,0.00100,35.963,100,2000,2090,56,57344,0.0645000,NULL
rand_100_2000_A_0.1_1,rand_100_2000_B_0.1_1,0.1,Union,100000,3,1024,0.00100,35.963,100,2000,2090,56,57344,0.0645200,NULL
rand_100_2000_A_0.2_0,rand_100_2000_B_0.2_0,0.2,Union,100000,3,1024,0.00100,35.963,100,2000,2080,56,57344,0.0621300,NULL
rand_100_2000_A_0.2_1,rand_100_2000_B_0.2_1,0.2,Union,100000,3,1024,0.00100,35.963,100,2000,2080,56,57344,0.0615500,NULL
rand_100_2000_A_0.3_0,rand_100_2000_B_0.3_0,0.3,Union,100000,3,1024,0.00100,35.963,100,2000,2070,56,57344,0.0623400,NULL
rand_100_2000_A_0.3_1,rand_100_2000_B_0.3_1,0.3,Union,100000,3,1024,0.00100,35.963,100,2000,2070,56,57344,0.0605300,NULL
rand_100_2000_A_0.4_0,rand_100_2000_B_0.4_0,0.4,Union,100000,3,1024,0.00100,35.963,100,2000,2060,56,57344,0.0584200,NULL
rand_100_2000_A_0.4_1,rand_100_2000_B_0.4_1,0.4,Union,100000,3,1024,0.00100,35.963,100,2000,2060,56,57344,0.0600600,NULL
rand_100_2000_A_0.5_0,rand_100_2000_B_0.5_0,0.5,Union,100000,3,1024,0.00100,35.963,100,2000,2050,56,57344,0.0583800,NULL
rand_100_2000_A_0.5_1,rand_100_2000_B_0.5_1,0.5,Union,100000,3,1024,0.00100,35.963,100,2000,2050,56,57344,0.0579700,NULL
rand_100_2000_A_0.6_0,rand_100_2000_B_0.6_0,0.6,Union,100000,3,1024,0.00100,35.963,100,2000,2040,56,57344,0.0579300,NULL
rand_100_2000_A_0.6_1,rand_100_2000_B_0.6_1,0.6,Union,100000,3,1024,0.00100,35.963,100,2000,2040,56,57344,0.0593000,NULL
rand_100_2000_A_0.7_0,rand_100_2000_B_0.7_0,0.7,Union,100000,3,1024,0.00100,35.963,100,2000,2030,56,57344,0.0581400,NULL
rand_100_2000_A_0.7_1,rand_100_2000_B_0.7_1,0.7,Union,100000,3,1024,0.00100,35.963,100,2000,2030,56,57344,0.0561000,NULL
rand_100_2000_A_0.8_0,rand_100_2000_B_0.8_0,0.8,Union,100000,3,1024,0.00100,35.963,100,2000,2020,56,57344,0.0551100,NULL
rand_100_2000_A_0.8_1,rand_100_2000_B_0.8_1,0.8,Union,100000,3,1024,0.00100,35.963,100,2000,2020,56,57344,0.0563600,NULL
rand_100_2000_A_0.9_0,rand_100_2000_B_0.9_0,0.9,Union,100000,3,1024,0.00100,35.963,100,2000,2010,56,57344,0.0553500,NULL
rand_100_2000_A_0.9_1,rand_100_2000_B_0.9_1,0.9,Union,100000,3,1024,0.00100,35.963,100,2000,2010,56,57344,0.0564300,NULL
