200	0.0035096	8.73385596401e-05	0.0070392	0.000217126497692	0.0030671	4.57981331497e-05	
300	0.00482695	7.24371615609e-05	0.01014125	0.000141218640324	0.00367455	5.05194752051e-05	
400	0.00636276666667	0.00013819028494	0.0121522666667	0.000156971185844	0.00442366666667	7.93846239427e-05	
500	0.008416975	0.000256831113009	0.015444875	0.000216105044445	0.005382725	0.000120539049624	
600	0.00907794	0.000645020523339	0.01824132	0.000307442749714	0.0050211	0.000180441257477	
700	0.01093375	0.000974464646364	0.0219921666667	0.000486047364614	0.00531795	0.000223680658312	
800	0.0119096285714	0.00147711944982	0.0255932142857	0.000647993699545	0.00452887142857	0.000317583252091	
900	0.0093865375	0.00130079906655	0.0294433125	0.000845902144273	0.00401795	0.000302174934796	
1000	0.00468682222222	0.000402456026761	0.0326889444444	0.000956557079975	0.00276898888889	0.000176232702851	
1100	0.0049563125	0.000380406723781	0.0413777625	0.000927028571102	0.0025092375	0.000140030228035	
1200	0.00646335714286	0.000461926881322	0.0494309857143	0.000762128324803	0.00257477142857	0.000121633011381	
1300	0.00893178333333	0.000654409516321	0.0569102333333	0.000532128719999	0.0030768	0.000148801024489	
1400	0.01346098	0.00117918413744	0.06454074	0.000662249772705	0.0035719	0.000211816090513	
1500	0.017407225	0.00153175201097	0.07190765	0.000584792903033	0.0034222	0.00026675650695	
1600	0.0169224333333	0.000908781848512	0.0813065666667	0.000714197586547	0.0029068	0.000150197650522	
1700	0.0195601	0.000150220469644	0.08963245	0.000554903002673	0.0031166	5.80719553657e-05	
1800	0.0243908	0.000380212724669	0.1003648	0.000653379029354	0.0038254	0.000104035109458	
