10	0.0348775	0.000100227366522	0.0404573	0.000145292467114	0.1890497	0.0149993974606	
50	0.0426385	0.000150910453581	0.0480371	0.000189784006175	0.1347307	0.0112224361892	
100	0.0427147	0.000170690365868	0.0912996	0.000206446273883	0.1900648	0.0160432127249	
200	0.0430139	0.00036766466923	0.1790816	0.000442722603895	0.2194862	0.0183989855219	
500	0.0456424	0.000302486601356	0.4064156	0.000174482961919	0.2411062	0.0171106902694	
1000	0.0451721	7.32714746678e-05	0.8059354	0.00350313038924	0.2628262	0.0215046797576	
2000	0.0474757	0.000868166781788	1.5560007	0.00544144582083	0.2661566	0.0301358620996	
5000	0.0478081	0.0013130149843	3.6546502	0.033907130604	0.3093653	0.020357167917	
10000	0.0459324	0.000278170818024	6.1573246	0.0260287848104	0.39639	0.0385553860398	
20000	0.0475695	0.000460447049073	9.4201265	0.0818869217585	0.4513718	0.025163598485	
