FileName,NumElems,UnitSize,NumUnitBFs,EffMemUsage,FP_Ratio,TimeTaken,MembershipQueryTime,NULL
rand::10000_0,10000,1024,173,177152,0.0043039,0.009175,0.188491,NULL
rand::10000_1,10000,1024,177,181248,0.0042982,0.009209,0.176061,NULL
rand::10000_2,10000,1024,180,184320,0.0039730,0.009231,0.176681,NULL
rand::10000_3,10000,1024,175,179200,0.0042677,0.009190,0.175176,NULL
rand::10000_4,10000,1024,174,178176,0.0041094,0.009039,0.175632,NULL
rand::10000_5,10000,1024,171,175104,0.0045776,0.009135,0.175353,NULL
rand::10000_6,10000,1024,173,177152,0.0043020,0.009057,0.174742,NULL
rand::10000_7,10000,1024,175,179200,0.0042677,0.009220,0.177266,NULL
rand::10000_8,10000,1024,173,177152,0.0042200,0.009301,0.174780,NULL
rand::10000_9,10000,1024,172,176128,0.0044994,0.009161,0.174327,NULL
rand::10000_10,10000,1024,174,178176,0.0043631,0.008945,0.176105,NULL
rand::10000_11,10000,1024,174,178176,0.0042791,0.009100,0.174022,NULL
rand::10000_12,10000,1024,175,179200,0.0042477,0.008981,0.176115,NULL
rand::10000_13,10000,1024,179,183296,0.0040617,0.009595,0.176144,NULL
rand::10000_14,10000,1024,171,175104,0.0045090,0.009310,0.174609,NULL
rand::10000_15,10000,1024,173,177152,0.0044384,0.009170,0.177647,NULL
rand::10000_16,10000,1024,175,179200,0.0041361,0.009551,0.174971,NULL
rand::10000_17,10000,1024,176,180224,0.0042582,0.009310,0.174162,NULL
rand::10000_18,10000,1024,176,180224,0.0041876,0.009032,0.175994,NULL
rand::10000_19,10000,1024,178,182272,0.0041447,0.009220,0.175671,NULL