FileA,FileB,Overlap,Operation,Namespace,NumHashFunc,UnitSize,FalsePstvProb,FillThreshold,NumElemsA,NumElemsB,NumElemsResult,NumUnitBFs,EffMemUsage,FP_Ratio,NULL
rand_100_100_A_0.1_0,rand_100_100_B_0.1_0,0.1,Intersection,100000,3,1024,0.00100,35.963,100,100,10,3,3072,0.0003100,NULL
rand_100_100_A_0.1_1,rand_100_100_B_0.1_1,0.1,Intersection,100000,3,1024,0.00100,35.963,100,100,10,3,3072,0.0002500,NULL
rand_100_100_A_0.2_0,rand_100_100_B_0.2_0,0.2,Intersection,100000,3,1024,0.00100,35.963,100,100,20,3,3072,0.0003800,NULL
rand_100_100_A_0.2_1,rand_100_100_B_0.2_1,0.2,Intersection,100000,3,1024,0.00100,35.963,100,100,20,3,3072,0.0004200,NULL
rand_100_100_A_0.3_0,rand_100_100_B_0.3_0,0.3,Intersection,100000,3,1024,0.00100,35.963,100,100,30,3,3072,0.0008000,NULL
rand_100_100_A_0.3_1,rand_100_100_B_0.3_1,0.3,Intersection,100000,3,1024,0.00100,35.963,100,100,30,3,3072,0.0005100,NULL
rand_100_100_A_0.4_0,rand_100_100_B_0.4_0,0.4,Intersection,100000,3,1024,0.00100,35.963,100,100,40,3,3072,0.0011000,NULL
rand_100_100_A_0.4_1,rand_100_100_B_0.4_1,0.4,Intersection,100000,3,1024,0.00100,35.963,100,100,40,3,3072,0.0007800,NULL
rand_100_100_A_0.5_0,rand_100_100_B_0.5_0,0.5,Intersection,100000,3,1024,0.00100,35.963,100,100,50,3,3072,0.0015400,NULL
rand_100_100_A_0.5_1,rand_100_100_B_0.5_1,0.5,Intersection,100000,3,1024,0.00100,35.963,100,100,50,3,3072,0.0011600,NULL
rand_100_100_A_0.6_0,rand_100_100_B_0.6_0,0.6,Intersection,100000,3,1024,0.00100,35.963,100,100,60,3,3072,0.0013600,NULL
rand_100_100_A_0.6_1,rand_100_100_B_0.6_1,0.6,Intersection,100000,3,1024,0.00100,35.963,100,100,60,3,3072,0.0017000,NULL
rand_100_100_A_0.7_0,rand_100_100_B_0.7_0,0.7,Intersection,100000,3,1024,0.00100,35.963,100,100,70,3,3072,0.0020100,NULL
rand_100_100_A_0.7_1,rand_100_100_B_0.7_1,0.7,Intersection,100000,3,1024,0.00100,35.963,100,100,70,3,3072,0.0020600,NULL
rand_100_100_A_0.8_0,rand_100_100_B_0.8_0,0.8,Intersection,100000,3,1024,0.00100,35.963,100,100,80,3,3072,0.0018900,NULL
rand_100_100_A_0.8_1,rand_100_100_B_0.8_1,0.8,Intersection,100000,3,1024,0.00100,35.963,100,100,80,3,3072,0.0016000,NULL
rand_100_100_A_0.9_0,rand_100_100_B_0.9_0,0.9,Intersection,100000,3,1024,0.00100,35.963,100,100,90,3,3072,0.0022300,NULL
rand_100_100_A_0.9_1,rand_100_100_B_0.9_1,0.9,Intersection,100000,3,1024,0.00100,35.963,100,100,90,3,3072,0.0022800,NULL
