FileA,FileB,Overlap,Operation,Namespace,NumHashFunc,UnitSize,FalsePstvProb,FillThreshold,NumElemsA,NumElemsB,NumElemsResult,NumUnitBFs,EffMemUsage,FP_Ratio,NULL
rand_200_200_A_0.1_0,rand_200_200_B_0.1_0,0.1,Intersection,100000,3,1024,0.00100,35.963,200,200,20,6,6144,0.0009000,NULL
rand_200_200_A_0.1_1,rand_200_200_B_0.1_1,0.1,Intersection,100000,3,1024,0.00100,35.963,200,200,20,6,6144,0.0011000,NULL
rand_200_200_A_0.2_0,rand_200_200_B_0.2_0,0.2,Intersection,100000,3,1024,0.00100,35.963,200,200,40,6,6144,0.0015400,NULL
rand_200_200_A_0.2_1,rand_200_200_B_0.2_1,0.2,Intersection,100000,3,1024,0.00100,35.963,200,200,40,6,6144,0.0015600,NULL
rand_200_200_A_0.3_0,rand_200_200_B_0.3_0,0.3,Intersection,100000,3,1024,0.00100,35.963,200,200,60,6,6144,0.0017600,NULL
rand_200_200_A_0.3_1,rand_200_200_B_0.3_1,0.3,Intersection,100000,3,1024,0.00100,35.963,200,200,60,6,6144,0.0021800,NULL
rand_200_200_A_0.4_0,rand_200_200_B_0.4_0,0.4,Intersection,100000,3,1024,0.00100,35.963,200,200,80,6,6144,0.0026200,NULL
rand_200_200_A_0.4_1,rand_200_200_B_0.4_1,0.4,Intersection,100000,3,1024,0.00100,35.963,200,200,80,6,6144,0.0026700,NULL
rand_200_200_A_0.5_0,rand_200_200_B_0.5_0,0.5,Intersection,100000,3,1024,0.00100,35.963,200,200,100,6,6144,0.0028500,NULL
rand_200_200_A_0.5_1,rand_200_200_B_0.5_1,0.5,Intersection,100000,3,1024,0.00100,35.963,200,200,100,6,6144,0.0030200,NULL
rand_200_200_A_0.6_0,rand_200_200_B_0.6_0,0.6,Intersection,100000,3,1024,0.00100,35.963,200,200,120,6,6144,0.0035800,NULL
rand_200_200_A_0.6_1,rand_200_200_B_0.6_1,0.6,Intersection,100000,3,1024,0.00100,35.963,200,200,120,6,6144,0.0040000,NULL
rand_200_200_A_0.7_0,rand_200_200_B_0.7_0,0.7,Intersection,100000,3,1024,0.00100,35.963,200,200,140,6,6144,0.0039400,NULL
rand_200_200_A_0.7_1,rand_200_200_B_0.7_1,0.7,Intersection,100000,3,1024,0.00100,35.963,200,200,140,6,6144,0.0042800,NULL
rand_200_200_A_0.8_0,rand_200_200_B_0.8_0,0.8,Intersection,100000,3,1024,0.00100,35.963,200,200,160,6,6144,0.0046500,NULL
rand_200_200_A_0.8_1,rand_200_200_B_0.8_1,0.8,Intersection,100000,3,1024,0.00100,35.963,200,200,160,6,6144,0.0042500,NULL
rand_200_200_A_0.9_0,rand_200_200_B_0.9_0,0.9,Intersection,100000,3,1024,0.00100,35.963,200,200,180,6,6144,0.0051100,NULL
rand_200_200_A_0.9_1,rand_200_200_B_0.9_1,0.9,Intersection,100000,3,1024,0.00100,35.963,200,200,180,6,6144,0.0048100,NULL
